autocannon -c 1024 -t30 http://localhost:3001/  --renderStatusCodes 
-----------------------
nest-fastify
-----------------------
┌─────────┬─────────┬─────────┬─────────┬─────────┬────────────┬───────────┬─────────┐
│ Stat    │ 2.5%    │ 50%     │ 97.5%   │ 99%     │ Avg        │ Stdev     │ Max     │
├─────────┼─────────┼─────────┼─────────┼─────────┼────────────┼───────────┼─────────┤
│ Latency │ 1245 ms │ 1986 ms │ 3395 ms │ 3422 ms │ 2123.06 ms │ 615.92 ms │ 3513 ms │
└─────────┴─────────┴─────────┴─────────┴─────────┴────────────┴───────────┴─────────┘
┌───────────┬─────┬──────┬────────┬────────┬────────┬────────┬─────────┐
│ Stat      │ 1%  │ 2.5% │ 50%    │ 97.5%  │ Avg    │ Stdev  │ Min     │
├───────────┼─────┼──────┼────────┼────────┼────────┼────────┼─────────┤
│ Req/Sec   │ 0   │ 0    │ 221    │ 409    │ 217.1  │ 113.6  │ 63      │
├───────────┼─────┼──────┼────────┼────────┼────────┼────────┼─────────┤
│ Bytes/Sec │ 0 B │ 0 B  │ 232 kB │ 430 kB │ 228 kB │ 119 kB │ 66.2 kB │
└───────────┴─────┴──────┴────────┴────────┴────────┴────────┴─────────┘
┌──────┬───────┐
│ Code │ Count │
├──────┼───────┤
│ 200  │ 2171  │
└──────┴───────┘

Req/Bytes counts sampled once per second.
# of samples: 10

7k requests in 10.54s, 2.28 MB read
4k errors (0 timeouts)

-----------------------
nest
-----------------------
Running 10s test @ http://localhost:3001/
1024 connections


┌─────────┬─────────┬─────────┬─────────┬─────────┬────────────┬───────────┬─────────┐
│ Stat    │ 2.5%    │ 50%     │ 97.5%   │ 99%     │ Avg        │ Stdev     │ Max     │
├─────────┼─────────┼─────────┼─────────┼─────────┼────────────┼───────────┼─────────┤
│ Latency │ 2271 ms │ 4475 ms │ 5860 ms │ 6025 ms │ 4349.45 ms │ 952.48 ms │ 6053 ms │
└─────────┴─────────┴─────────┴─────────┴─────────┴────────────┴───────────┴─────────┘
┌───────────┬─────┬──────┬────────┬────────┬────────┬────────┬─────────┐
│ Stat      │ 1%  │ 2.5% │ 50%    │ 97.5%  │ Avg    │ Stdev  │ Min     │
├───────────┼─────┼──────┼────────┼────────┼────────┼────────┼─────────┤
│ Req/Sec   │ 0   │ 0    │ 210    │ 415    │ 199.9  │ 108.28 │ 85      │
├───────────┼─────┼──────┼────────┼────────┼────────┼────────┼─────────┤
│ Bytes/Sec │ 0 B │ 0 B  │ 235 kB │ 464 kB │ 223 kB │ 121 kB │ 94.9 kB │
└───────────┴─────┴──────┴────────┴────────┴────────┴────────┴─────────┘
┌──────┬───────┐
│ Code │ Count │
├──────┼───────┤
│ 200  │ 1999  │
└──────┴───────┘

Req/Bytes counts sampled once per second.
# of samples: 10

3k requests in 10.46s, 2.23 MB read


-----------------------
fastify
-----------------------
Running 10s test @ http://localhost:3003/
1024 connections


┌─────────┬─────────┬─────────┬─────────┬─────────┬────────────┬────────────┬─────────┐
│ Stat    │ 2.5%    │ 50%     │ 97.5%   │ 99%     │ Avg        │ Stdev      │ Max     │
├─────────┼─────────┼─────────┼─────────┼─────────┼────────────┼────────────┼─────────┤
│ Latency │ 1614 ms │ 5538 ms │ 6823 ms │ 6939 ms │ 4790.19 ms │ 1474.45 ms │ 6980 ms │
└─────────┴─────────┴─────────┴─────────┴─────────┴────────────┴────────────┴─────────┘
┌───────────┬─────┬──────┬────────┬────────┬────────┬─────────┬────────┐
│ Stat      │ 1%  │ 2.5% │ 50%    │ 97.5%  │ Avg    │ Stdev   │ Min    │
├───────────┼─────┼──────┼────────┼────────┼────────┼─────────┼────────┤
│ Req/Sec   │ 0   │ 0    │ 173    │ 201    │ 157.5  │ 56.67   │ 122    │
├───────────┼─────┼──────┼────────┼────────┼────────┼─────────┼────────┤
│ Bytes/Sec │ 0 B │ 0 B  │ 182 kB │ 211 kB │ 166 kB │ 59.6 kB │ 128 kB │
└───────────┴─────┴──────┴────────┴────────┴────────┴─────────┴────────┘
┌──────┬───────┐
│ Code │ Count │
├──────┼───────┤
│ 200  │ 1575  │
└──────┴───────┘

Req/Bytes counts sampled once per second.
# of samples: 10

3k requests in 10.26s, 1.66 MB read
-----------------------
express
-----------------------
Running 10s test @ http://localhost:3004/
1024 connections


┌─────────┬─────────┬─────────┬─────────┬─────────┬────────────┬────────────┬─────────┐
│ Stat    │ 2.5%    │ 50%     │ 97.5%   │ 99%     │ Avg        │ Stdev      │ Max     │
├─────────┼─────────┼─────────┼─────────┼─────────┼────────────┼────────────┼─────────┤
│ Latency │ 2354 ms │ 5363 ms │ 9880 ms │ 9908 ms │ 5619.51 ms │ 2158.88 ms │ 9944 ms │
└─────────┴─────────┴─────────┴─────────┴─────────┴────────────┴────────────┴─────────┘
┌───────────┬─────────┬─────────┬────────┬────────┬────────┬─────────┬─────────┐
│ Stat      │ 1%      │ 2.5%    │ 50%    │ 97.5%  │ Avg    │ Stdev   │ Min     │
├───────────┼─────────┼─────────┼────────┼────────┼────────┼─────────┼─────────┤
│ Req/Sec   │ 4       │ 4       │ 93     │ 166    │ 97.9   │ 52.67   │ 4       │
├───────────┼─────────┼─────────┼────────┼────────┼────────┼─────────┼─────────┤
│ Bytes/Sec │ 4.47 kB │ 4.47 kB │ 104 kB │ 185 kB │ 109 kB │ 58.8 kB │ 4.47 kB │
└───────────┴─────────┴─────────┴────────┴────────┴────────┴─────────┴─────────┘
┌──────┬───────┐
│ Code │ Count │
├──────┼───────┤
│ 200  │ 979   │
└──────┴───────┘

Req/Bytes counts sampled once per second.
# of samples: 10

2k requests in 10.33s, 1.09 MB read